…
  group_by(city_state) %>% 
  nest() %>% 
  mutate(
    fit = map(data, ~ glm(solved ~ victim_age + victim_sex + victim_race,
                          data = ., family = binomial())),
    tidy_fit = map(.x = fit, ~broom::tidy(.x, conf.int = TRUE, exponentiate = TRUE) )
  ) %>% 
  select(city_state, tidy_fit) %>% 
  unnest(tidy_fit) %>% 
  filter(term == "victim_sexMale") %>%
  select(city_state, estimate, conf.low, conf.high)
city_glm
```

    ## # A tibble: 47 × 4
    ## # Groups:   city_state [47]
    ##    city_state      estimate conf.low conf.high
    ##    <chr>              <dbl>    <dbl>     <dbl>
    ##  1 Albuquerque, NM    1.77     0.825     3.76 
    ##  2 Atlanta, GA        1.00     0.680     1.46 
    ##  3 Baltimore, MD      0.426    0.324     0.558
    ##  4 Baton Rouge, LA    0.381    0.204     0.684
    ##  5 Birmingham, AL     0.870    0.571     1.31 
    ##  6 Boston, MA         0.674    0.353     1.28 
    ##  7 Buffalo, NY        0.521    0.288     0.936
    ##  8 Charlotte, NC      0.884    0.551     1.39 
    ##  9 Chicago, IL        0.410    0.336     0.501
    ## 10 Cincinnati, OH     0.400    0.231     0.667
    ## # ℹ 37 more rows
…
